Projet Initial
…
::: {.label}Nombre de tirages::: ::: {.value}100:::

::: {.label}Observations::: ::: {.value}1600:::

5.3 Fréquence des boules

freq_boules <- keno %>%
  count(valeur_boule, name = "nombre_sorties") %>%
  mutate(frequence = nombre_sorties / nb_dates) %>%
  arrange(valeur_boule)

freq_boules

# A tibble: 56 × 3
   valeur_boule nombre_sorties frequence
          <dbl>          <int>     <dbl>
 1            1             30      0.3 
 2            2             26      0.26
 3            3             28      0.28
 4            4             32      0.32
 5            5             17      0.17
 6            6             21      0.21
 7            7             37      0.37
 8            8             23      0.23
 9            9             33      0.33
10           10             30      0.3 
# ℹ 46 more rows
…
